{
  "staging": {
    "awscloudformation": {
      "AuthRoleName": "amplify-amplify10787475b6f14-staging-210217-authRole",
      "UnauthRoleArn": "arn:aws:iam::169707552809:role/amplify-amplify10787475b6f14-staging-210217-unauthRole",
      "AuthRoleArn": "arn:aws:iam::169707552809:role/amplify-amplify10787475b6f14-staging-210217-authRole",
      "Region": "us-west-2",
      "DeploymentBucketName": "amplify-amplify10787475b6f14-staging-210217-deployment",
      "UnauthRoleName": "amplify-amplify10787475b6f14-staging-210217-unauthRole",
      "StackName": "amplify-amplify10787475b6f14-staging-210217",
      "StackId": "arn:aws:cloudformation:us-west-2:169707552809:stack/amplify-amplify10787475b6f14-staging-210217/7d4d5520-bd9c-11eb-9bb8-0604ff757123",
      "AmplifyAppId": "d1pe6ffa1nauq6"
    },
    "categories": {
      "auth": {
        "docuclimate0b082d2a": {}
      }
    }
  }
}